[05-Apr-2020 02:00:00] NOTICE: fpm is running, pid 3121
[05-Apr-2020 02:00:00] NOTICE: ready to handle connections
[12-Apr-2020 02:00:01] NOTICE: Terminating ...
[12-Apr-2020 02:00:01] NOTICE: exiting, bye-bye!
