2020/03/15 11:57:40 [error] 399#399: *2 connect() failed (111: Connection refused) while connecting to upstream, client: 202.165.225.205, server: _, request: "GET /api/v1/users/self HTTP/2.0", upstream: "http://172.20.0.5:8080/api/v1/users/self", host: "annotate.snapthat.ai", referrer: "https://annotate.snapthat.ai/"
2020/03/15 11:57:58 [error] 399#399: *2 connect() failed (111: Connection refused) while connecting to upstream, client: 202.165.225.205, server: _, request: "POST /api/v1/auth/login HTTP/2.0", upstream: "http://172.20.0.5:8080/api/v1/auth/login", host: "annotate.snapthat.ai", referrer: "https://annotate.snapthat.ai/auth/login"
2020/03/15 12:00:21 [error] 399#399: *2 connect() failed (111: Connection refused) while connecting to upstream, client: 202.165.225.205, server: _, request: "GET /api/v1/users/self HTTP/2.0", upstream: "http://172.20.0.5:8080/api/v1/users/self", host: "annotate.snapthat.ai", referrer: "https://annotate.snapthat.ai/auth/login"
2020/03/15 12:04:24 [error] 398#398: *17 connect() failed (111: Connection refused) while connecting to upstream, client: 202.165.225.205, server: _, request: "GET /api/v1/users/self HTTP/2.0", upstream: "http://172.20.0.5:8080/api/v1/users/self", host: "annotate.snapthat.ai", referrer: "https://annotate.snapthat.ai/"
2020/03/15 12:04:33 [error] 398#398: *17 connect() failed (111: Connection refused) while connecting to upstream, client: 202.165.225.205, server: _, request: "POST /api/v1/auth/login HTTP/2.0", upstream: "http://172.20.0.5:8080/api/v1/auth/login", host: "annotate.snapthat.ai", referrer: "https://annotate.snapthat.ai/auth/login"
