2020-04-05 02:00:00,270 fail2ban.server         [377]: INFO    rollover performed on /config/log/fail2ban/fail2ban.log
2020-04-08 03:15:08,145 fail2ban.filter         [377]: INFO    [nginx-botsearch] Found 121.40.112.64 - 2020-04-08 03:15:07
2020-04-09 00:13:36,218 fail2ban.filter         [377]: INFO    [nginx-botsearch] Found 39.106.17.80 - 2020-04-09 00:13:35
2020-04-09 01:33:24,080 fail2ban.filter         [377]: INFO    [nginx-botsearch] Found 103.253.113.121 - 2020-04-09 01:33:23
2020-04-09 10:50:35,609 fail2ban.filter         [377]: INFO    [nginx-botsearch] Found 148.228.15.4 - 2020-04-09 10:50:35
2020-04-09 14:39:11,118 fail2ban.filter         [377]: INFO    [nginx-botsearch] Found 39.107.238.8 - 2020-04-09 14:39:10
2020-04-09 16:14:15,192 fail2ban.filter         [377]: INFO    [nginx-botsearch] Found 35.163.236.117 - 2020-04-09 16:14:15
2020-04-09 18:58:42,651 fail2ban.filter         [377]: INFO    [nginx-botsearch] Found 206.189.193.135 - 2020-04-09 18:58:42
